<svg width="562" height="168" viewBox="0 0 562 168" fill="none" xmlns="http://www.w3.org/2000/svg">
<path d="M558.893 153.742C402.628 23.2714 100.747 -109.02 -271.893 164.258" stroke="#015E3D" stroke-width="8"/>
</svg>
